\relax 
\providecommand\hyper@newdestlabel[2]{}
\providecommand*\new@tpo@label[2]{}
\@nameuse{bbl@beforestart}
\catcode `"\active 
\catcode `-\active 
\providecommand\HyperFirstAtBeginDocument{\AtBeginDocument}
\HyperFirstAtBeginDocument{\ifx\hyper@anchor\@undefined
\global\let\oldcontentsline\contentsline
\gdef\contentsline#1#2#3#4{\oldcontentsline{#1}{#2}{#3}}
\global\let\oldnewlabel\newlabel
\gdef\newlabel#1#2{\newlabelxx{#1}#2}
\gdef\newlabelxx#1#2#3#4#5#6{\oldnewlabel{#1}{{#2}{#3}}}
\AtEndDocument{\ifx\hyper@anchor\@undefined
\let\contentsline\oldcontentsline
\let\newlabel\oldnewlabel
\fi}
\fi}
\global\let\hyper@last\relax 
\gdef\HyperFirstAtBeginDocument#1{#1}
\providecommand\HyField@AuxAddToFields[1]{}
\providecommand\HyField@AuxAddToCoFields[2]{}
\providecommand\BKM@entry[2]{}
\bibstyle{plain}
\BKM@entry{id=1,dest={73656374696F6E2E31},srcline={29}}{5C3337365C3337375C3030305C3333325C303030765C3030306F5C30303064}
\BKM@entry{id=2,dest={73656374696F6E2E32},srcline={35}}{5C3337365C3337375C303030565C303030735C303030745C303030755C303030705C3030306E5C3030305C3335355C3030305C3034305C303030645C303030615C303030745C30303061}
\BKM@entry{id=3,dest={73656374696F6E2E33},srcline={39}}{5C3337365C3337375C3030304D5C303030655C303030745C3030306F5C303030645C30303079}
\citation{cyclegan}
\citation{gan}
\citation{resnet}
\BKM@entry{id=4,dest={73656374696F6E2E34},srcline={61}}{5C3337365C3337375C303030565C3030305C3337355C303030735C3030306C5C303030655C303030645C3030306B5C30303079}
\babel@aux{czech}{}
\@writefile{toc}{\contentsline {section}{\numberline {1}Úvod}{1}{section.1}\protected@file@percent }
\@writefile{toc}{\contentsline {section}{\numberline {2}Vstupní data}{1}{section.2}\protected@file@percent }
\@writefile{toc}{\contentsline {section}{\numberline {3}Metody}{1}{section.3}\protected@file@percent }
\@writefile{toc}{\contentsline {section}{\numberline {4}Výsledky}{1}{section.4}\protected@file@percent }
\BKM@entry{id=5,dest={73656374696F6E2E35},srcline={99}}{5C3337365C3337375C3030305A5C3030305C3334315C303030765C3030315C3033335C30303072}
\citation{patchgan}
\bibdata{reference}
\@writefile{lof}{\contentsline {figure}{\numberline {1}{\ignorespaces Překlad fotek po 45. generaci (vlevo originální fotka, vpravo její překlad)}}{2}{figure.1}\protected@file@percent }
\newlabel{fig:imgs}{{1}{2}{Překlad fotek po 45. generaci (vlevo originální fotka, vpravo její překlad)}{figure.1}{}}
\@writefile{lof}{\contentsline {figure}{\numberline {2}{\ignorespaces Hodnoty adversarial loss a discriminator loss}}{2}{figure.2}\protected@file@percent }
\newlabel{fig:adv}{{2}{2}{Hodnoty adversarial loss a discriminator loss}{figure.2}{}}
\@writefile{lof}{\contentsline {figure}{\numberline {3}{\ignorespaces Hodnoty identity loss.}}{2}{figure.3}\protected@file@percent }
\newlabel{fig:id}{{3}{2}{Hodnoty identity loss}{figure.3}{}}
\@writefile{lof}{\contentsline {figure}{\numberline {4}{\ignorespaces Hodnoty cycle identity loss.}}{2}{figure.4}\protected@file@percent }
\newlabel{fig:cycle}{{4}{2}{Hodnoty cycle identity loss}{figure.4}{}}
\@writefile{toc}{\contentsline {section}{\numberline {5}Závěr}{2}{section.5}\protected@file@percent }
